Place,Name,Sex,BirthDate,Equipment,Division,BodyweightKg,WeightClassKg,Squat1Kg,Squat2Kg,Squat3Kg,Best3SquatKg,Bench1Kg,Bench2Kg,Bench3Kg,Best3BenchKg,Deadlift1Kg,Deadlift2Kg,Deadlift3Kg,Best3DeadliftKg,TotalKg,Event
1,Phoebe Duff,F,2000-06-06,Raw,F_JR_AIPO,60.8,67.5,107.5,112.5,115,115,45,47.5,-50,47.5,115,120,125,125,287.5,SBD
1,Aideen Clarke,F,1978-07-15,Raw,F_MR_1_AIPO,124.95,110+,90,-100,-100,90,60,65,-67.5,65,125,135,142.5,142.5,297.5,SBD
1,Megan O Neill,F,1991-12-23,Raw,F_OR_AIPO,47.05,48,82.5,90,-95,90,35,-40,-40,35,110,120,127.5,127.5,252.5,SBD
1,Maria McShane,F,1988-02-28,Raw,F_OR_AIPO,56,56,90,97.5,-105,97.5,40,45,-50,45,155,162.5,170,170,312.5,SBD
1,Nicola Phelan,F,1982-12-10,Raw,F_OR_IPO,65.85,67.5,110,117.5,-120,117.5,67.5,70,72.5,72.5,137.5,145,152.5,152.5,342.5,SBD
1,Nicole Switzer,F,1997-09-10,Raw,F_OR_AIPO,67.1,67.5,80,85,90,90,42.5,-47.5,-47.5,42.5,-110,117.5,122.5,122.5,255,SBD
1,Stephanie Hill,F,1985-05-30,Raw,F_OR_AIPO,122.05,110+,80,-85,90,90,-55,65,70,70,120,130,140,140,300,SBD
1,Marykate Hoare,F,2002-04-01,Raw,F_TR_3_AIPO,56.95,60,-45,45,-47.5,45,-35,-35,35,35,67.5,72.5,-75,72.5,152.5,SBD
1,Chloe Andrews #1,F,1999-05-28,Wraps,F_JCR_AIPO,58.05,60,90,100,105,105,47.5,52.5,-55,52.5,120,127.5,132.5,132.5,290,SBD
DQ,Tara McManus,F,1978-02-09,Wraps,F_MCR_1_AIPO,72.95,75,85,95,100,100,52.5,-57.5,-57.5,52.5,-110,,,,,SBD
1,Mioara Mara Vizinteanu,F,1977-04-25,Wraps,F_MCR_1_AIPO,80.8,82.5,90,97.5,105,105,52.5,57.5,60,60,130,137.5,142.5,142.5,307.5,SBD
2,Diane Duignan,F,1977-07-23,Wraps,F_MCR_1_AIPO,79.55,82.5,95,100,102.5,102.5,45,47.5,-50,47.5,115,120,125,125,275,SBD
1,Anna Marie O'Donoghue,F,1975-09-27,Wraps,F_MCR_2_AIPO,69.9,75,112.5,117.5,120,120,52.5,55,57.5,57.5,125,130,-132.5,130,307.5,SBD
1,Kim Duggan,F,1971-05-27,Wraps,F_MCR_3_AIPO,54.55,56,-95,-100,100,100,57.5,-60,-60,57.5,125,135,142.5,142.5,300,SBD
DQ,Margaret Fahy,F,1970-09-04,Wraps,F_MCR_3_AIPO,64.7,67.5,75,82.5,-90,82.5,45,50,-52.5,50,-125,-125,,,,SBD
1,Aoife Monaghan,F,1996-06-18,Wraps,F_OCR_AIPO,55.8,56,117.5,125,130,130,57.5,62.5,65,65,115,122.5,127.5,127.5,322.5,SBD
1,Denise O'Driscoll,F,1992-12-20,Wraps,F_OCR_AIPO,66.3,67.5,95,100,-102.5,100,60,62.5,-65,62.5,120,125,130,130,292.5,SBD
1,Megan Bowe O Neill,F,1997-11-09,Wraps,F_OCR_AIPO,78.1,82.5,115,125,140,140,50,52.5,55,55,130,140,-150,140,335,SBD
1,Aimee McQuillan,F,1993-03-04,Wraps,F_OCR_AIPO,87.75,90,130,140,-145,140,60,-65,-65,60,130,140,-145,140,340,SBD
1,Amy Larkin,F,1983-07-16,Wraps,F_OCR_AIPO,108.5,110,115,120,125,125,65,67.5,-70,67.5,125,130,-132.5,130,322.5,SBD
1,Megan Weir,F,2002-05-24,Wraps,F_TCR_3_AIPO,52.4,56,112.5,-117.5,,112.5,42.5,45,-47.5,45,110,117.5,-122.5,117.5,275,SBD
1,Paulina Coleman,F,1977-07-05,Single-ply,F_MES_1_AIPO,89.45,90,200,-212.5,-212.5,200,110,117.5,122.5,122.5,-200,-205,205,205,527.5,SBD
1,Edyta Piechowicz,F,1986-05-29,Single-ply,F_OES_AIPO,65.75,67.5,140,-150,150,150,-80,80,-85,80,150,160,170,170,400,SBD
1,Eoin Reid,M,1998-08-07,Raw,M_JR_AIPO,73.8,75,97.5,107.5,-115,107.5,72.5,82.5,-85,82.5,120,130,137.5,137.5,327.5,SBD
1,David Fitzgerald #1,M,2000-08-17,Raw,M_JR_AIPO,89.35,90,205,215,222.5,222.5,147.5,152.5,-155,152.5,-225,-230,230,230,605,SBD
1,Caoilin Traynor,M,1999-09-17,Raw,M_JR_AIPO,108.15,110,205,225,232.5,232.5,135,142.5,-152.5,142.5,230,250,-265,250,625,SBD
1,Thomas Kearns Horan,M,1999-02-02,Raw,M_JR_AIPO,128.45,140,200,-210,-210,200,100,110,-115,110,-200,200,212.5,212.5,522.5,SBD
1,Martin Mahony,M,1979-11-16,Raw,M_MR_1_AIPO,89.9,90,195,205,-210,205,127.5,135,-140,135,265,-285,-285,265,605,SBD
1,Darren Mc Creary,M,1976-12-10,Raw,M_MCR_2_AIPO,89.1,90,170,180,190,190,85,-90,-90,85,190,205,-215,205,480,SBD
1,Enda Stauton,M,1983-03-28,Raw,M_OR_AIPO,81.15,82.5,-170,-177.5,177.5,177.5,100,-105,-105,100,180,190,-200,190,467.5,SBD
1,Christy Reddan,M,1988-09-18,Raw,M_OR_AIPO,98.4,100,150,160,170,170,125,130,132.5,132.5,180,200,-220,200,502.5,SBD
1,Sean Hough,M,1997-03-28,Raw,M_OR_IPO,108.2,110,215,230,235,235,150,160,165,165,260,280,-300,280,680,SBD
1,Jason Donnelly,M,2004-11-15,Raw,M_TR_2_AIPO,60,60,80,85,90,90,50,-52.5,52.5,52.5,120,130,-132.5,130,272.5,SBD
1,Jake Coleman,M,2005-11-29,Raw,M_TR_2_AIPO,61.05,67.5,90,100,-105,100,40,45,50,50,130,140,-145,140,290,SBD
1,Luke Thompson #4,M,2004-09-26,Raw,M_TR_2_AIPO,98.95,100,125,135,150,150,75,-80,-80,75,190,200,-210,200,425,SBD
1,John McHugh,M,2005-11-08,Raw,M_TR_2_AIPO,107.5,110,140,150,160,160,60,67.5,-75,67.5,190,205,-220,205,432.5,SBD
1,Ben Flemming,M,2002-06-25,Raw,M_TR_3_AIPO,72.2,75,100,107.5,112.5,112.5,60,70,-77.5,70,125,135,145,145,327.5,SBD
1,Jay Holland,M,2000-12-29,Wraps,M_JCR_AIPO,81,82.5,225,240,-245,240,110,120,-125,120,210,220,230,230,590,SBD
1,Enda Kerrane,M,1999-06-15,Wraps,M_JCR_AIPO,88,90,190,195,200,200,110,120,-122.5,120,215,220,225,225,545,SBD
2,Adam Murray #1,M,2000-09-01,Wraps,M_JCR_AIPO,88.35,90,142.5,160,175,175,90,97.5,-100,97.5,192.5,-205,215,215,487.5,SBD
1,Aaron Mc Donnell,M,2001-08-02,Wraps,M_JCR_AIPO,97.55,100,175,190,195,195,130,-145,-145,130,205,225,-232.5,225,550,SBD
2,Callum Golding,M,1998-09-18,Wraps,M_JCR_AIPO,98.55,100,160,170,185,185,100,110,115,115,195,215,225,225,525,SBD
3,Peter Finegan,M,2000-11-07,Wraps,M_JCR_AIPO,93.9,100,150,165,172.5,172.5,92.5,100,-105,100,170,190,200,200,472.5,SBD
1,Lee McCafferty,M,2002-02-27,Wraps,M_JCR_AIPO,123.75,125,200,220,230,230,125,135,140,140,180,200,-210,200,570,SBD
1,Kevin Holland,M,1977-05-26,Wraps,M_MCR_1_AIPO,95.38,100,180,-200,200,200,120,127.5,-130,127.5,200,-210,210,210,537.5,SBD
1,Mark O'Donoghue,M,1976-04-15,Wraps,M_MCR_2_AIPO,73.9,75,-145,150,155,155,92.5,95,-97.5,95,190,200,210,210,460,SBD
1,Paudie Phelan,M,1975-02-14,Wraps,M_MCR_2_IPO,134,140,190,210,-230,210,140,150,-157.5,150,225,240,-255,240,600,SBD
1,Seamus Kirwan,M,1971-05-18,Wraps,M_MCR_3_IPO,82.3,82.5,210,220,225,225,130,135,137.5,137.5,225,235,240,240,602.5,SBD
1,Andrew Scully,M,1970-10-03,Wraps,M_MCR_3_IPO,98.55,100,200,210,220,220,150,157.5,162.5,162.5,220,227.5,232.5,232.5,615,SBD
1,Richard Horan,M,1967-06-09,Wraps,M_MCR_3_IPO,113.5,125,240,250,260,260,145,155,-160,155,245,255,265,265,680,SBD
1,Dave Fitzpatrick,M,1988-01-06,Wraps,M_OCR_AIPO,81.9,82.5,190,202.5,210,210,125,132.5,137.5,137.5,230,245,-250,245,592.5,SBD
2,Stephen Cleary,M,1984-07-16,Wraps,M_OCR_AIPO,81.25,82.5,160,-170,-175,160,97.5,102.5,-107.5,102.5,180,-190,190,190,452.5,SBD
1,Mark Cosgrove,M,1988-04-09,Wraps,M_OCR_AIPO,89.7,90,230,250,260,260,145,155,160,160,230,250,-260,250,670,SBD
2,Seán Pepper,M,1988-09-26,Wraps,M_OCR_AIPO,88.95,90,165,175,182.5,182.5,95,100,105,105,205,215,230,230,517.5,SBD
3,Ciaran O'Brien,M,1991-09-26,Wraps,M_OCR_AIPO,89.95,90,-185,185,190,190,117.5,122.5,-125,122.5,175,185,-200,185,497.5,SBD
4,Mark Pepper,M,1986-02-11,Wraps,M_OCR_AIPO,89.15,90,160,175,-180,175,80,82.5,85,85,205,212.5,215,215,475,SBD
1,Chris Davidson,M,1983-11-15,Wraps,M_OCR_AIPO,99.2,100,-190,205,215,215,117.5,125,130,130,220,245,260,260,605,SBD
1,AJ Cronin,M,1987-10-07,Wraps,M_OCR_IPO,109.95,110,280,290,305,305,175,180,182.5,182.5,290,305,-312.5,305,792.5,SBD
1,Shane Clavin,M,1985-02-24,Wraps,M_OCR_AIPO,114.3,125,195,202.5,210,210,97.5,102.5,105,105,205,212.5,-215,212.5,527.5,SBD
1,Jamie Hogan,M,1987-07-29,Wraps,M_OCR_AIPO,138.6,140,165,175,190,190,115,125,130,130,-150,170,190,190,510,SBD
1,Scott Holland,M,,Wraps,M_TCR_3_AIPO,59.8,60,65,75,80,80,40,45,-50,45,85,92.5,100,100,225,SBD
1,Oisin Smith,M,2005-09-30,Wraps,M_TCR_2_AIPO,85.45,90,160,167.5,175,175,92.5,97.5,100,100,190,200,-202.5,200,475,SBD
1,Darragh O'Keeffe,M,2002-12-06,Wraps,M_TCR_3_AIPO,95.85,100,215,225,-235,225,140,145,-150,145,270,285,-290,285,655,SBD
2,Cameron Murray,M,2003-07-30,Wraps,M_TCR_3_AIPO,99.35,100,175,195,202.5,202.5,82.5,90,-95,90,177.5,190,200,200,492.5,SBD
3,Garret Dixon,M,2002-05-17,Wraps,M_TCR_3_AIPO,94.45,100,160,165,170,170,100,105,-110,105,180,200,-202.5,200,475,SBD
1,Mark Doherty,M,1967-02-12,Single-ply,M_MES_4_AIPO,94.9,100,75,,,75,130,140,150,150,75,,,75,300,SBD
DQ,Luke O'Brien,M,1997-06-19,Single-ply,M_OES_AIPO,87.9,90,-255,-255,-255,,,,,,,,,,,SBD
1,Barry Smith #1,M,1987-02-25,Multi-ply,M_OEM_AIPO,55.6,56,220,230,-240,230,137.5,-140,-140,137.5,197.5,-210,210,210,577.5,SBD
1,Shane Brodie,M,1973-10-18,Multi-ply,M_MEM_2_IPO,89.8,90,390,-408,-408,390,170,177.5,,177.5,235,245,252.5,252.5,820,SBD
1,Shane Brodie,M,1973-10-18,Multi-ply,M_OEM_IPO,89.8,90,390,-408,-408,390,170,177.5,,177.5,235,245,252.5,252.5,820,SBD
DQ,Barry O'Sullivan,M,1983-03-05,Multi-ply,M_OEM_AIPO,131.8,140,275,305,,305,-240,-240,,,,,,,,SBD
