Place,Name,BirthYear,Country,WeightClassKg,BodyweightKg,Sex,Division,Squat1Kg,Squat2Kg,Squat3Kg,Best3SquatKg,Bench1Kg,Bench2Kg,Bench3Kg,Best3BenchKg,Deadlift1Kg,Deadlift2Kg,Deadlift3Kg,Best3DeadliftKg,TotalKg,Event,Equipment
1,Yukako Fukushima,1970,Japan,47,46.2,F,Open,165,175,180,180,115,120,123,123,150,160,-162.5,160,463,SBD,Single-ply
2,Sahragul Movlamova,1978,Turkmenistan,47,44.6,F,Open,105,-110,110,110,75,80,-85,80,115,-120,-120,115,305,SBD,Single-ply
3,Shoko Tanaka,1964,Japan,47,46.85,F,Open,107.5,117.5,-122.5,117.5,57.5,62.5,-65,62.5,105,115,120,120,300,SBD,Single-ply
DQ,Leslie Evangelista,1981,Philippines,47,46.5,F,Open,-120,-120,-120,,-60,-62.5,62.5,62.5,117.5,122.5,135,135,,SBD,Single-ply
DQ,Iroda Nurmetova,1990,Uzbekistan,47,,F,Open,,,,,,,,,,,,,,SBD,Single-ply
1,Yi-Ju Chou,1980,Taiwan,52,51.1,F,Open,160,165,172.5,172.5,70,77.5,82.5,82.5,170,180,185,185,440,SBD,Single-ply
2,Sudha Kumari,1979,India,52,51.85,F,Open,137.5,152.5,-160,152.5,85,92.5,-95,92.5,125,135,142.5,142.5,387.5,SBD,Single-ply
3,Anita Koykka,1960,Philippines,52,51.6,F,Open,145,-162.5,-162.5,145,82.5,-87.5,-87.5,82.5,150,-165,-165,150,377.5,SBD,Single-ply
4,Mika Teramura,1962,Japan,52,51.25,F,Open,132.5,-142.5,-142.5,132.5,87.5,-90,90,90,132.5,142.5,-147.5,142.5,365,SBD,Single-ply
DQ,Uugahbayar Khungaa,1977,Mongolia,52,,F,Open,,,,,,,,,,,,,,SBD,Single-ply
1,Hartati Sri,1984,Indonesia,57,56.3,F,Open,200,210,215,215,130,135,140,140,180,190,195,195,550,SBD,Single-ply
2,Chien-Yu Chou,1982,Taiwan,57,56.6,F,Open,155,165,172.5,172.5,90,-97.5,-97.5,90,180,192.5,-197.5,192.5,455,SBD,Single-ply
3,Badeti Tejaswini Naidu,1979,India,57,56.9,F,Open,160,172.5,180,180,77.5,85,-90,85,165,175,-197.5,175,440,SBD,Single-ply
4,Ayako Ikeya,1969,Japan,57,56.55,F,Open,155,-165,165,165,100,105,110,110,160,-170,-170,160,435,SBD,Single-ply
5,Hatsuko Kimura,1951,Japan,57,53.4,F,Open,140,-155,155,155,55,70,-80,70,165,175,-182.5,175,400,SBD,Single-ply
1,Sari Noviana,1984,Indonesia,63,61.4,F,Open,200,-210,220,220,125,135,-140,135,210,220,-230,220,575,SBD,Single-ply
2,Yekaterina Kryukova,1985,Kazakhstan,63,62.45,F,Open,-160,160,-180,160,105,-115,-115,105,160,167.5,172.5,172.5,437.5,SBD,Single-ply
3,S Logeswari,1989,India,63,61.65,F,Open,170,-175,-175,170,55,62.5,67.5,67.5,145,155,160,160,397.5,SBD,Single-ply
4,Wing-Yuk Ip,1961,Hong Kong,63,62.2,F,Open,115,-122.5,,115,72.5,75,82.5,82.5,110,130,-145,130,327.5,SBD,Single-ply
1,Mayumi Kitamura,1967,Japan,72,65.55,F,Open,185,200,205,205,145,152.5,157.5,157.5,180,192.5,-202.5,192.5,555,SBD,Single-ply
2,Olga Kholyavko,1989,Kazakhstan,72,71.05,F,Open,170,-185,-190,170,100,105,110,110,165,175,182.5,182.5,462.5,SBD,Single-ply
3,Yelena Bykova,1986,Kazakhstan,72,68.05,F,Open,175,185,-192.5,185,90,97.5,-105,97.5,-167.5,167.5,177.5,177.5,460,SBD,Single-ply
4,Michelle Cruz,1972,Philippines,72,67.7,F,Open,-165,165,-185,165,100,102.5,-105,102.5,155,175,-185,175,442.5,SBD,Single-ply
1,Min-Chu Hung,1983,Taiwan,84,83.5,F,Open,190,200,210,210,130,150,160,160,140,150,160,160,530,SBD,Single-ply
2,Valeriya Shevchenko,1990,Kazakhstan,84,75.45,F,Open,170,180,-187.5,180,92.5,-100,102.5,102.5,182.5,192.5,200,200,482.5,SBD,Single-ply
3,Aparna Ghate,1983,India,84,79.6,F,Open,175,185,-195,185,80,95,-100,95,160,172.5,-197.5,172.5,452.5,SBD,Single-ply
DQ,Gurmukh Singh,1987,India,84,,F,Open,,,,,,,,,,,,,,SBD,Single-ply
DQ,Uransuren Tserentogtoh,1975,Mongolia,84,,F,Open,,,,,,,,,,,,,,SBD,Single-ply
DQ,Yelena Telichko,1992,Kazakhstan,84,,F,Open,,,,,,,,,,,,,,SBD,Single-ply
1,Ya-Wen Chang,1984,Taiwan,84+,86,F,Open,-245,245,-260,245,120,125,130,130,200,215,-225,215,590,SBD,Single-ply
2,Midori Kato,1971,Japan,84+,90.45,F,Open,-175,175,190,190,90,100,102.5,102.5,155,165,170,170,462.5,SBD,Single-ply
3,Guha Sampa,1967,India,84+,88.4,F,Open,172.5,-182.5,-182.5,172.5,102.5,-117.5,117.5,117.5,140,155,167.5,167.5,457.5,SBD,Single-ply
DQ,Pratibha Bapu More,1973,India,84+,84.05,F,Open,-95,-95,-95,,45,-52.5,52.5,52.5,90,-102.5,,90,,SBD,Single-ply
1,Michifumi Sasakura,1978,Japan,59,58.5,M,Open,215,230,242.5,242.5,170,180,182.5,182.5,220,-232.5,235,235,660,SBD,Single-ply
2,Chun-Lin Wang,1990,Taiwan,59,58.7,M,Open,240,250,255,255,140,147.5,150,150,230,245,-255,245,650,SBD,Single-ply
3,Hiroyuki Isagawa,1953,Japan,59,58.15,M,Open,210,222.5,227.5,227.5,-175,175,-177.5,175,210,220,-225,220,622.5,SBD,Single-ply
4,Ilkhomiddin Buriev,1982,Uzbekistan,59,56.1,M,Open,190,215,222.5,222.5,135,140,142.5,142.5,195,-210,-220,195,560,SBD,Single-ply
5,Dastan Idrishev,1986,Kazakhstan,59,56.75,M,Open,180,192.5,-200,192.5,100,105,110,110,170,180,185,185,487.5,SBD,Single-ply
DQ,Tuwshinbayar Narantsetseg,1987,Mongolia,59,,M,Open,,,,,,,,,,,,,,SBD,Single-ply
DQ,Uwshinbayar N.T,1987,Mongolia,59,,M,Open,,,,,,,,,,,,,,SBD,Single-ply
1,Tsung-Ting Hsieh,1982,Taiwan,66,63.8,M,Open,270,282.5,290,290,190,197.5,205,205,270,285,,285,780,SBD,Single-ply
2,Robi Suyanto,1985,Indonesia,66,65.3,M,Open,270,285,-287.5,285,-175,175,-185,175,240,255,270,270,730,SBD,Single-ply
3,Elbar Gadyrmamedov,1982,Turkmenistan,66,65.4,M,Open,200,210,-227.5,210,125,-135,135,135,240,-260,-267.5,240,585,SBD,Single-ply
4,Yusup Gurbanov,1992,Turkmenistan,66,65.4,M,Open,220,-225,-225,220,110,115,-127.5,115,-170,170,185,185,520,SBD,Single-ply
DQ,Chun Sing Choi,1987,Hong Kong,66,65.5,M,Open,100,115,125,125,-115,-115,-115,,160,-177.5,177.5,177.5,,SBD,Single-ply
DQ,S. Vimal Raja,1984,India,66,,M,Open,,,,,,,,,,,,,,SBD,Single-ply
1,Lung-Hsin Huang,1983,Taiwan,74,73.55,M,Open,275,287.5,295,295,195,207.5,212.5,212.5,280,292.5,295,295,802.5,SBD,Single-ply
2,Masaharu Koiwai,1976,Japan,74,73.7,M,Open,255,270,-277.5,270,190,-197.5,197.5,197.5,255,275,290,290,757.5,SBD,Single-ply
3,Norihiro Otani,1980,Japan,74,73.45,M,Open,-295,-295,300,300,190,200,-205,200,240,255,-262.5,255,755,SBD,Single-ply
4,Andrey Prokopenko,1988,Kazakhstan,74,73,M,Open,275,285,-292.5,285,170,180,185,185,265,275,282.5,282.5,752.5,SBD,Single-ply
5,N. Nanda,1978,India,74,73.1,M,Open,250,-252.5,275,275,130,140,145,145,260,280,292.5,292.5,712.5,SBD,Single-ply
6,Merdan Nursahedov,1976,Turkmenistan,74,73.8,M,Open,220,-240,240,240,202.5,207.5,210,210,200,220,230,230,680,SBD,Single-ply
DQ,Parvizpoor Ebrahim,1987,Iran,74,73.1,M,Open,-240,240,250,250,145,-150,-155,145,200,-220,,200,,SBD,Single-ply
DQ,Eldor Saydaliev,1989,Uzbekistan,74,,M,Open,,,,,,,,,,,,,,SBD,Single-ply
DQ,Batsaikhan Munkhbayar,1986,Mongolia,74,,M,Open,,,,,,,,,,,,,,SBD,Single-ply
DQ,Ahmet Gurbanov,1992,Turkmenistan,74,,M,Open,,,,,,,,,,,,,,SBD,Single-ply
1,Davranbek Turakhanov,1974,Kazakhstan,83,79.15,M,Open,275,300,315,315,197.5,207.5,212.5,212.5,275,300,310,310,837.5,SBD,Single-ply
2,Kirill Pavlenko,1988,Kazakhstan,83,82.05,M,Open,300,310,320,320,190,197.5,-202.5,197.5,300,-310,-322.5,300,817.5,SBD,Single-ply
3,Masahiro Mori,1972,Japan,83,82.55,M,Open,275,285,-292.5,285,215,222.5,-225,222.5,260,270,275,275,782.5,SBD,Single-ply
4,S Madhu,1986,India,83,78.95,M,Open,260,270,-287.5,270,140,145,-150,145,240,262.5,-275,262.5,677.5,SBD,Single-ply
5,Mohsen Shahnifeiz,1979,Iran,83,82.9,M,Open,-265,265,-275,265,165,-170,170,170,240,-255,-255,240,675,SBD,Single-ply
6,Ji Hoon Moon,1980,South Korea,83,81.45,M,Open,-200,200,210,210,150,160,-170,160,215,225,235,235,605,SBD,Single-ply
DQ,Daniyor Khakimov,1989,Uzbekistan,83,,M,Open,,,,,,,,,,,,,,SBD,Single-ply
DQ,Ariubaatar Sharawdori,1982,Mongolia,83,,M,Open,,,,,,,,,,,,,,SBD,Single-ply
DQ,Farshid Soltani,1969,Iran,83,,M,Open,,,,,,,,,,,,,,SBD,Single-ply
1,Mohammadali Mohammadi-Dinani,1984,Iran,93,92.85,M,Open,310,322.5,-332.5,322.5,195,-202.5,-202.5,195,320,335,-350,335,852.5,SBD,Single-ply
2,Daisuke Arakawa,1978,Japan,93,89.35,M,Open,290,305,315,315,-230,-230,230,230,275,290,-307.5,290,835,SBD,Single-ply
3,Vyacheslav Starkov,1987,Kazakhstan,93,89.25,M,Open,-290,300,305,305,190,200,-202.5,200,290,305,315,315,820,SBD,Single-ply
4,Bhagwant Kholiya,1985,India,93,91,M,Open,290,300,315,315,195,205,-212.5,205,270,-285,-292.5,270,790,SBD,Single-ply
5,Askar Sharapatov,1981,Kazakhstan,93,87.2,M,Open,270,280,-285,280,190,-195,-195,190,240,250,-255,250,720,SBD,Single-ply
6,Hasni Issa Al,1978,Oman,93,92.75,M,Open,260,280,-295,280,155,170,180,180,225,240,-255,240,700,SBD,Single-ply
7,Masahito Kitsui,1979,Hong Kong,93,89.7,M,Open,-220,220,-222.5,220,-210,210,212.5,212.5,200,230,-252.5,230,662.5,SBD,Single-ply
DQ,Munkh Erdene Dawaatseren,1975,Mongolia,93,91.15,M,Open,290,-300,-302.5,290,-235,-235,-235,,-250,,,,,SBD,Single-ply
DQ,Konstantin Khardin,1968,Uzbekistan,93,,M,Open,,,,,,,,,,,,,,SBD,Single-ply
DQ,Mohammad Yusuf,,Indonesia,93,,M,Open,,,,,,,,,,,,,,SBD,Single-ply
1,Sadegh Nasiri,,Iran,105,103.3,M,Open,340,350,-362.5,350,225,235,240,240,270,285,-290,285,875,SBD,Single-ply
2,Asep Setiawan,,Indonesia,105,99.9,M,Open,320,340,-360,340,210,225,-235,225,280,300,305,305,870,SBD,Single-ply
3,Kohei Chida,1968,Japan,105,99.65,M,Open,300,-310,310,310,275,282.5,-290,282.5,235,-250,250,250,842.5,SBD,Single-ply
4,Sergey Gass,1987,Uzbekistan,105,96.6,M,Open,280,310,325,325,-180,180,190,190,290,312.5,317.5,317.5,832.5,SBD,Single-ply
5,Javad Javadifar,,Iran,105,104.9,M,Open,315,320,-325,320,190,197.5,207.5,207.5,290,302.5,-310,302.5,830,SBD,Single-ply
6,Chimedtseren Bataa,1984,Mongolia,105,104.6,M,Open,-290,-290,290,290,235,245,-255,245,220,240,-255,240,775,SBD,Single-ply
7,Timur Sattarov,1982,Turkmenistan,105,96.6,M,Open,240,250,-260,250,230,240,-247.5,240,220,240,250,250,740,SBD,Single-ply
8,Cheng-Ming Yang,1967,Taiwan,105,94.05,M,Open,250,-252.5,-252.5,250,190,-235,-235,190,200,250,-252.5,250,690,SBD,Single-ply
9,S Achuthan,1980,India,105,96.3,M,Open,280,-295,-295,280,130,-145,-145,130,270,-280,-285,270,680,SBD,Single-ply
10,Subramanya Natraj,1974,India,105,104.75,M,Open,210,230,240,240,170,185,-190,185,220,240,250,250,675,SBD,Single-ply
DQ,Shohrat Garayev,1980,Turkmenistan,105,95.25,M,Open,-240,-240,240,240,-245,-245,-245,,-200,,,,,SBD,Single-ply
DQ,Takayuki Arakawa,1978,Japan,105,,M,Open,,,,,,,,,,,,,,SBD,Single-ply
DQ,Sanjay Sardesai,1964,India,105,,M,Open,,,,,,,,,,,,,,SBD,Single-ply
DQ,Enkhbold Khvder,1985,Mongolia,105,,M,Open,,,,,,,,,,,,,,SBD,Single-ply
1,Majid Dalir,1984,Iran,120,118.2,M,Open,340,355,365,365,240,250,252.5,252.5,290,300,-302.5,300,917.5,SBD,Single-ply
2,Yuriy Zakharov,1972,Kazakhstan,120,115.8,M,Open,310,320,335,335,230,240,250,250,280,290,300,300,885,SBD,Single-ply
3,Nani Ardani,1984,Indonesia,120,113.75,M,Open,-325,325,-340,325,-200,200,-220,200,270,-280,-280,270,795,SBD,Single-ply
DQ,Mehdi Zatparvar,1986,Iran,120,105.01,M,Open,230,-270,-270,230,210,225,-232.5,225,-280,-280,-302.5,,,SBD,Single-ply
DQ,Milad Nazemolroaya,1986,Iran,120,115.9,M,Open,-305,305,-310,305,-195,-202.5,202.5,202.5,-260,-270,-270,,,SBD,Single-ply
DQ,Bashim Amanmuradov,1973,Turkmenistan,120,118.25,M,Open,-300,-305,-305,,-240,-240,-240,,-240,-240,,,,SBD,Single-ply
DQ,Rajeev Choudhary,1977,India,120,119.15,M,Open,,,,,,,,,,,,,,SBD,Single-ply
DQ,Ragchaa Dambii,1976,Mongolia,120,,M,Open,,,,,,,,,,,,,,SBD,Single-ply
1,Mojtaba Maleki,1983,Iran,120+,140.15,M,Open,355,375,377.5,377.5,200,-250,250,250,320,340,-350,340,967.5,SBD,Single-ply
2,Masamitsu Ichikawa,1972,Japan,120+,140.2,M,Open,350,-370,-370,350,230,240,250,250,280,310,-342.5,310,910,SBD,Single-ply
3,Chien-Hsiung Chao,1969,Taiwan,120+,149.3,M,Open,320,-352.5,-357.5,320,220,-235,235,235,310,322.5,-342.5,322.5,877.5,SBD,Single-ply
4,Yevgeniy Yevdokimov,1980,Kazakhstan,120+,121.2,M,Open,340,355,362.5,362.5,220,-227.5,-230,220,290,-305,-312.5,290,872.5,SBD,Single-ply
5,Aidh Ali Mahfoodh Al Mandhari,1985,Oman,120+,127.85,M,Open,310,-320,-320,310,160,180,-185,180,235,250,-292.5,250,740,SBD,Single-ply
6,Ruslan Atayev,1979,Turkmenistan,120+,149.3,M,Open,200,,,200,-270,270,275,275,240,,,240,715,SBD,Single-ply
DQ,Badha Sumeeth,1987,India,120+,128.45,M,Open,240,250,-260,250,-130,140,,140,-230,-230,,,,SBD,Single-ply
DQ,Enkhbayar Byambasuren,1975,Mongolia,120+,,M,Open,,,,,,,,,,,,,,SBD,Single-ply
DQ,Rashid Al Hasni,1984,Oman,120+,,M,Open,,,,,,,,,,,,,,SBD,Single-ply
1,Terumi Yogo,1969,Japan,47,46.75,F,Masters 1,115,125,-132.5,125,80,82.5,85,85,110,125,-135,125,335,SBD,Single-ply
2,Yukiko Yanagisawa,1967,Japan,47,46.7,F,Masters 1,110,115,120,120,52.5,55,-57.5,55,105,112.5,-117.5,112.5,287.5,SBD,Single-ply
1,Hiroko Arai,1963,Japan,52,50.25,F,Masters 1,-110,110,-125,110,90,-100,-105,90,115,125,135,135,335,SBD,Single-ply
1,Maki Hasegawa,1965,Japan,57,55.25,F,Masters 1,115,125,130,130,70,75,-77.5,75,115,125,130,130,335,SBD,Single-ply
2,Saori Ishiguro,1963,Japan,57,54.7,F,Masters 1,-125,125,-130,125,62.5,-67.5,-70,62.5,100,130,-147.5,130,317.5,SBD,Single-ply
1,Misa Okada,1968,Japan,63,62.2,F,Masters 1,130,140,145,145,100,-105,105,105,140,150,-152.5,150,400,SBD,Single-ply
2,Bela Ghosh,1969,India,63,58.95,F,Masters 1,-60,-60,60,60,30,35,40,40,70,85,100,100,200,SBD,Single-ply
1,Yumiko Nabekura,1962,Japan,72,65.45,F,Masters 1,115,125,-132.5,125,65,70,72.5,72.5,120,130,140,140,337.5,SBD,Single-ply
1,Tsujata Bhaka,1966,India,84,74.3,F,Masters 1,90,100,120,120,50,-57.5,60,60,90,102.5,115,115,295,SBD,Single-ply
1,Anita Koykka,1960,Philippines,52,51.15,F,Masters 2,-120,135,-137.5,135,60,67.5,80,80,135,145,155,155,370,SBD,Single-ply
1,Mikiko Baba,1960,Japan,57,56.6,F,Masters 2,110,-120,125,125,62.5,67.5,70,70,110,117.5,122.5,122.5,317.5,SBD,Single-ply
2,Leonora Oca,1956,Philippines,57,53.55,F,Masters 2,-110,-110,110,110,67.5,70,-75,70,120,127.5,-132.5,127.5,307.5,SBD,Single-ply
1,Wing-Yuk Ip,1961,Hong Kong,63,61.55,F,Masters 2,-110,115,,115,55,-57.5,,55,120,-145,,120,290,SBD,Single-ply
1,Vijaya Babaji Nar,1957,India,84,77.25,F,Masters 2,50,60,70,70,25,27.5,30,30,60,70,80,80,180,SBD,Single-ply
1,Nobuaki Fujiwara,1969,Japan,66,65.9,M,Masters 1,225,-242.5,245,245,112.5,150,-160,150,195,215,-232.5,215,610,SBD,Single-ply
1,Nobuyuki Hamada,1969,Japan,74,73.2,M,Masters 1,-270,270,-295,270,180,190,-192.5,190,220,240,-250,240,700,SBD,Single-ply
2,Takamasa Yoshino,1964,Japan,74,73.7,M,Masters 1,195,205,-215,205,115,120,125,125,210,220,-230,220,550,SBD,Single-ply
3,M. Bhaskar Rao,1965,India,74,73.2,M,Masters 1,140,170,190,190,100,117.5,-125,117.5,150,175,-182.5,175,482.5,SBD,Single-ply
1,Makoto Yamaguchi,1963,Japan,83,82.6,M,Masters 1,270,-290,-290,270,160,165,-170,165,240,250,255,255,690,SBD,Single-ply
2,Keiichi Yokoi,1968,Japan,83,81,M,Masters 1,-245,245,-260,245,165,172.5,177.5,177.5,240,252.5,-267.5,252.5,675,SBD,Single-ply
3,Nitin M. Kudalkar,1965,India,83,81.65,M,Masters 1,-160,160,180,180,80,97.5,107.5,107.5,160,190,210,210,497.5,SBD,Single-ply
1,Konstant Khardin,1968,Uzbekistan,93,86.05,M,Masters 1,230,255,262.5,262.5,155,165,167.5,167.5,230,262.5,270,270,700,SBD,Single-ply
2,Takafumi Matsumoto,1970,Japan,93,92.3,M,Masters 1,250,260,-265,260,180,190,200,200,220,-240,-240,220,680,SBD,Single-ply
3,Mohammad J. Haj,1970,Iran,93,91.65,M,Masters 1,-225,225,-235,225,175,182.5,190,190,235,250,262.5,262.5,677.5,SBD,Single-ply
4,Jae Young Lee,1966,South Korea,93,90.8,M,Masters 1,230,240,250,250,-145,155,165,165,220,235,-245,235,650,SBD,Single-ply
5,Neeraj Kumar,1968,India,93,83.2,M,Masters 1,-220,220,235,235,115,125,130,130,220,235,,235,600,SBD,Single-ply
6,Hanu Devendrappa,1970,India,93,91.35,M,Masters 1,180,190,205,205,120,130,137.5,137.5,190,215,230,230,572.5,SBD,Single-ply
DQ,Kazufumi Fukushima,1966,Japan,93,92.1,M,Masters 1,255,265,275,275,-192.5,-192.5,-192.5,,260,270,-280,270,,SBD,Single-ply
1,Ju-Ick Jang,1963,South Korea,105,93.95,M,Masters 1,225,250,-262.5,250,140,160,-172.5,160,225,242.5,252.5,252.5,662.5,SBD,Single-ply
2,Vijaya Kanchan,1968,India,105,101.1,M,Masters 1,190,202.5,210,210,145,157.5,165,165,180,200,215,215,590,SBD,Single-ply
3,Agha Sadatgul,1969,Afghanistan,105,104.8,M,Masters 1,-170,180,205,205,-170,170,-180,170,160,180,-200,180,555,SBD,Single-ply
4,Sanyasi Rao E,1964,India,105,97.65,M,Masters 1,170,190,-205,190,90,100,-105,100,180,190,200,200,490,SBD,Single-ply
5,M. Tsevegsuren,1969,Mongolia,105,101.85,M,Masters 1,100,,,100,-195,-195,195,195,-100,100,-150,100,395,SBD,Single-ply
1,Mohd. Nad Mojadari S,1970,Afghanistan,120,105.75,M,Masters 1,250,300,-320,300,150,-180,-200,150,280,300,307.5,307.5,757.5,SBD,Single-ply
2,Seung Whan Park,1968,South Korea,120,111.6,M,Masters 1,275,290,302.5,302.5,190,210,-225,210,220,230,240,240,752.5,SBD,Single-ply
1,Nejati Mojtaba,1971,Iran,120+,125.25,M,Masters 1,-300,300,315,315,180,190,200,200,290,-300,-300,290,805,SBD,Single-ply
1,Tomihiro Tsuda,1969,Japan,120+,178.2,M,Masters 1,-280,280,-290,280,210,-220,-220,210,200,220,240,240,730,SBD,Single-ply
2,Mohamm Dastjerdi,,Iran,120+,120.05,M,Masters 1,230,-240,245,245,140,150,160,160,180,200,-205,200,605,SBD,Single-ply
3,Omar Jumaa Al Dhareri,1970,UAE,120+,185.3,M,Masters 1,-100,100,,100,220,-230,,220,-60,60,120,120,440,SBD,Single-ply
1,Hiroko Kikuiri,1949,Japan,52,48.8,F,Masters 2,120,130,-135,130,65,70,-75,70,140,150,-155,150,350,SBD,Single-ply
1,A-Yun Lin,1945,Taiwan,57,54.7,F,Masters 2,120,-130,137.5,137.5,60,65,-70,65,125,135,145,145,347.5,SBD,Single-ply
2,Toyomi Hirano,1950,Japan,57,54.65,F,Masters 2,100,-105,105,105,50,-55,-55,50,100,105,-110,105,260,SBD,Single-ply
1,Hisako Hayashi,1951,Japan,63,58.2,F,Masters 2,125,132.5,137.5,137.5,77.5,80,82.5,82.5,130,140,142.5,142.5,362.5,SBD,Single-ply
1,Antonio Taguibao,1958,Philippines,59,56.65,M,Masters 2,165,-175,-175,165,60,72.5,82.5,82.5,165,175,187.5,187.5,435,SBD,Single-ply
2,Masahiko Urano,1959,Japan,59,58.75,M,Masters 2,145,-155,157.5,157.5,102.5,107.5,-110,107.5,155,-165,170,170,435,SBD,Single-ply
3,Hiroshi Shimizu,1958,Japan,59,54.7,M,Masters 2,150,-160,-160,150,90,95,100,100,135,-150,-155,135,385,SBD,Single-ply
1,Hironori Niwa,1961,Japan,66,65.55,M,Masters 2,-210,210,-220,210,120,125,130,130,200,220,-230,220,560,SBD,Single-ply
2,Masami Yoshida,1957,Japan,66,63.5,M,Masters 2,150,160,165,165,105,110,115,115,175,185,192.5,192.5,472.5,SBD,Single-ply
3,Sigh Satyprakash,1958,India,66,65,M,Masters 2,150,160,-165,160,85,90,-92.5,90,150,160,-165,160,410,SBD,Single-ply
4,Sailen Kr. Srivasta,1956,India,66,63.3,M,Masters 2,120,135,,135,70,80,,80,120,135,,135,350,SBD,Single-ply
1,Masayuki Takahashi,1960,Japan,74,71.65,M,Masters 2,230,240,245,245,180,-195,195,195,175,195,210,210,650,SBD,Single-ply
2,Ka-Po Gable Wang,1959,Hong Kong,74,71,M,Masters 2,110,120,125,125,-95,95,100,100,160,165,,165,390,SBD,Single-ply
1,Seiji Harada,1961,Japan,83,82.35,M,Masters 2,215,-225,225,225,160,165,-172.5,165,235,245,-250,245,635,SBD,Single-ply
2,Rawdandorj Jamsran,1959,Mongolia,83,82.75,M,Masters 2,175,-185,-185,175,110,-120,-120,110,160,172.5,-180,172.5,457.5,SBD,Single-ply
3,Majid Zatparvar,1957,Iran,83,79.15,M,Masters 2,140,155,160,160,-100,100,110,110,150,160,-172.5,160,430,SBD,Single-ply
1,Shigetoshi Asama,1959,Japan,93,93,M,Masters 2,275,290,302.5,302.5,185,190,-195,190,240,250,257.5,257.5,750,SBD,Single-ply
2,Kazutoshi Watanabe,1952,Japan,93,86.8,M,Masters 2,210,-220,-225,210,162.5,170,-175,170,190,210,220,220,600,SBD,Single-ply
3,Prasade. Bala,1957,India,93,87.9,M,Masters 2,120,150,170,170,80,90,100,100,150,170,,170,440,SBD,Single-ply
1,Ulugbek Ermetov,1959,Kazakhstan,105,99.7,M,Masters 2,170,190,200,200,160,172.5,182.5,182.5,150,170,175,175,557.5,SBD,Single-ply
2,Bhoir Pr Mahadeo,1960,India,105,94.15,M,Masters 2,120,140,150,150,80,90,95,95,120,150,180,180,425,SBD,Single-ply
1,Hosse Mirshekari,1955,Iran,120,109,M,Masters 2,200,-210,220,220,160,165,,165,180,-185,185,185,570,SBD,Single-ply
2,Sathya Prakash,1958,India,120,120,M,Masters 2,180,-200,,180,100,110,,110,160,,,160,450,SBD,Single-ply
1,Kadhim Azeez,1957,Iraq,120+,121.35,M,Masters 2,80,100,,100,50,60,,60,90,115,120,120,280,SBD,Single-ply
1,Shintaro Uchiyama,1947,Japan,59,58.45,M,Masters 3,155,165,-170,165,95,-100,-100,95,160,170,-175,170,430,SBD,Single-ply
2,Kung-Him Wong,1947,Hong Kong,59,51.8,M,Masters 3,115,-117.5,-117.5,115,92.5,-97.5,97.5,97.5,130,140,-142.5,140,352.5,SBD,Single-ply
DQ,Shinjun Oshiro,1943,Japan,59,58.05,M,Masters 3,-170,-170,-170,,80,90,,90,160,-170,-175,160,,SBD,Single-ply
1,Chokichi Ito,1950,Japan,66,65.5,M,Masters 3,180,200,-205,200,110,117.5,120,120,190,205,-212.5,205,525,SBD,Single-ply
2,Charan Guru,1951,India,66,62.1,M,Masters 3,-140,-140,140,140,90,-100,100,100,100,130,-145,130,370,SBD,Single-ply
DQ,Hidetoshi Marumoto,1947,Japan,66,63.35,M,Masters 3,-205.5,-205.5,-205.5,,-110,-110,120,120,190,-205,-205,190,,SBD,Single-ply
1,Katsuji Okiura,1945,Japan,74,71.3,M,Masters 3,175,185,202.5,202.5,85,90,-95,90,200,210,-220,210,502.5,SBD,Single-ply
DQ,Satoru Takita,1947,Japan,74,73.45,M,Masters 3,-210,-210,-210,,-115,115,-120,115,200,,,200,,SBD,Single-ply
1,Toshio Kitano,1946,Japan,83,82.75,M,Masters 3,180,200,-225,200,140,-150,,140,200,230,-247.5,230,570,SBD,Single-ply
2,Tetsuya Kinoshita,1942,Japan,83,75.15,M,Masters 3,155,165,175,175,80,85,90,90,155,165,175,175,440,SBD,Single-ply
1,M. Moheshwariya,1947,India,93,89.9,M,Masters 3,160,180,200,200,70,80,85,85,200,210,-225,210,495,SBD,Single-ply
2,B. Aliasghar,1942,Iran,93,92.75,M,Masters 3,90,100,110,110,-90,-100,100,100,110,115,120,120,330,SBD,Single-ply
DQ,Alireza Samsami,1951,Iran,93,89.3,M,Masters 3,-70,-70,-70,,40,60,-70,60,80,90,100,100,,SBD,Single-ply
1,Maghsoud Sattarzadeh,1942,Iran,105,102.55,M,Masters 3,160,-190,190,190,-110,110,120,120,160,180,200,200,510,SBD,Single-ply
2,Sing Kadyanpuran,1951,India,105,95.85,M,Masters 3,140,150,155,155,110,120,122.5,122.5,150,165,175,175,452.5,SBD,Single-ply
3,Ahmad Sediqik Farid,1949,Afghanistan,105,95.8,M,Masters 3,140,-155,-155,140,105,115,-130,115,150,160,180,180,435,SBD,Single-ply
1,Abdlollah,1949,Iran,120,105.55,M,Masters 3,-100,100,,100,100,-135,-135,100,100,,,100,300,SBD,Single-ply
1,Kim-Won Pok,1940,Hong Kong,59,52.2,M,Masters 3,105,,,105,67.5,72.5,-77.5,72.5,125,-132.5,-132.5,125,302.5,SBD,Single-ply
1,Hiroaki Suzuki,1936,Japan,66,65.6,M,Masters 3,-170,170,182.5,182.5,80,85,87.5,87.5,165,172.5,-177.5,172.5,442.5,SBD,Single-ply
1,Mitsuru Osawa,1941,Japan,74,73.2,M,Masters 3,180,-200,202.5,202.5,110,115,-117.5,115,165,182.5,-190,182.5,500,SBD,Single-ply
1,Hiroshi Itagaki,1941,Japan,83,80.65,M,Masters 4,120,-125,125,125,90,95,-97.5,95,120,125,130,130,350,SBD,Single-ply
1,Dinova R Sirochet,1993,Uzbekistan,47,46.95,F,Sub-Juniors,85,97.5,105,105,50,60,62.5,62.5,90,110,117.5,117.5,285,SBD,Single-ply
2,Salam Debika Devi,1997,India,47,46.9,F,Sub-Juniors,50,60,70,70,30,37.5,-40,37.5,70,80,-90,80,187.5,SBD,Single-ply
1,Zharkyn Abdullin,1994,Kazakhstan,52,51.95,F,Sub-Juniors,130,140,155,155,70,77.5,-80,77.5,130,140,147.5,147.5,380,SBD,Single-ply
2,Ayaka Horita,1996,Japan,52,50.75,F,Sub-Juniors,100,-110,-110,100,45,47.5,50,50,100,110,117.5,117.5,267.5,SBD,Single-ply
1,Jung Chiangchia,1993,Taiwan,57,56.45,F,Sub-Juniors,110,120,127.5,127.5,60,65,70,70,110,125,132.5,132.5,330,SBD,Single-ply
1,Ting Hung Jr,1994,Taiwan,84+,90.25,F,Sub-Juniors,220,230,-235,230,90,97.5,100,100,160,170,-180,170,500,SBD,Single-ply
2,Martiningsi Fitria,1993,Indonesia,84+,93,F,Sub-Juniors,-180,180,-190,180,-95,95,107.5,107.5,140,165,182.5,182.5,470,SBD,Single-ply
3,Neha Huderi,1993,India,84+,106.45,F,Sub-Juniors,-150,150,-162.5,150,70,77.5,-82.5,77.5,130,137.5,142.5,142.5,370,SBD,Single-ply
4,Dipali Narkhede,1993,India,84+,117.75,F,Sub-Juniors,145,160,-170,160,57.5,-62.5,-62.5,57.5,135,147.5,-155,147.5,365,SBD,Single-ply
1,Eka Komalasari,1991,Indonesia,47,44.95,F,Juniors,140,150,-155,150,65,75,80,80,-140,140,142.5,142.5,372.5,SBD,Single-ply
2,Jou Chenwei,1991,Taiwan,47,44.9,F,Juniors,125,135,140,140,65,72.5,77.5,77.5,125,135,140,140,357.5,SBD,Single-ply
1,Yoriko Sakamaki,1990,Japan,52,50.1,F,Juniors,120,-130,-130,120,75,80,82.5,82.5,120,125,130,130,332.5,SBD,Single-ply
2,Vinutha Mailakana,1992,India,52,51.8,F,Juniors,100,-110,-110,100,40,47.5,52.5,52.5,100,117.5,-130,117.5,270,SBD,Single-ply
3,Roda Nurmetovai,1990,Uzbekistan,52,48.2,F,Juniors,80,100,115,115,35,45,-50,45,80,107.5,-117.5,107.5,267.5,SBD,Single-ply
1,Betina Bordeos,1990,Philippines,57,56.5,F,Juniors,130,140,-147.5,140,75,77.5,85,85,140,152.5,165,165,390,SBD,Single-ply
2,Sugandhidevanat,1990,India,57,55.35,F,Juniors,145,-152.5,-152.5,145,62.5,-67.5,-67.5,62.5,125,-130,-130,125,332.5,SBD,Single-ply
3,Nithya S,1989,India,57,56.9,F,Juniors,120,-130,130,130,45,50,55,55,130,137.5,-150,137.5,322.5,SBD,Single-ply
4,Shiori Ban,1991,Japan,57,56,F,Juniors,125,135,137.5,137.5,60,65,67.5,67.5,110,115,-117.5,115,320,SBD,Single-ply
1,Mikiko Suzuki,1990,Japan,63,61.25,F,Juniors,140,150,160,160,80,90,-92.5,90,140,150,-160,150,400,SBD,Single-ply
2,Malak,1991,India,63,60.25,F,Juniors,90,97.5,102.5,102.5,35,40,-42.5,40,95,107.5,117.5,117.5,260,SBD,Single-ply
3,Saravana Priya,1991,India,63,62.35,F,Juniors,-70,-70,70,70,30,35,-37.5,35,80,90,100,100,205,SBD,Single-ply
1,Mela Eka,1990,Indonesia,72,66.9,F,Juniors,190,-205,205,205,70,72.5,82.5,82.5,170,180,190,190,477.5,SBD,Single-ply
2,Chika Shimonaka,1989,Japan,72,63.75,F,Juniors,125,140,-150,140,70,75,80,80,115,127.5,-140,127.5,347.5,SBD,Single-ply
DQ,Takeuchi Ai,1989,Japan,72,63.25,F,Juniors,-160,-160,-160,,70,75,-80,75,125,132.5,140,140,,SBD,Single-ply
1,Rahayu Sri,1992,Indonesia,84,82.95,F,Juniors,190,210,-240,210,110,120,,120,170,190,200,200,530,SBD,Single-ply
1,Jie-Wen Chen,1990,Taiwan,84+,120.4,F,Juniors,-240,240,250,250,130,137.5,-142.5,137.5,155,165,170,170,557.5,SBD,Single-ply
2,Ayano Mizuno,1990,Japan,84+,100.4,F,Juniors,180,200,-210,200,80,-140,-142.5,80,110,120,-130,120,400,SBD,Single-ply
3,Dhivyad,1992,India,84+,98,F,Juniors,-80,80,90,90,30,35,40,40,80,-95,105,105,235,SBD,Single-ply
1,Regie Ramirez,1993,Philippines,53,52.3,M,Sub-Juniors,165,-182.5,-182.5,165,90,100,-105,100,170,185,195,195,460,SBD,Single-ply
2,Kentaro Harada,1993,Japan,53,53,M,Sub-Juniors,-150,155,165,165,90,100,-105,100,165,-172.5,-187.5,165,430,SBD,Single-ply
1,Am Salimishahraki,1995,Iran,59,59,M,Sub-Juniors,185,197.5,210,210,90,110,117.5,117.5,172.5,190,-205,190,517.5,SBD,Single-ply
2,Vyachesl Martsev,1994,Uzbekistan,59,57.95,M,Sub-Juniors,160,180,-192.5,180,100,107.5,-115,107.5,170,185,190,190,477.5,SBD,Single-ply
3,Prasad Shetty,1993,India,59,59,M,Sub-Juniors,150,165,-175,165,85,92.5,-97.5,92.5,202.5,-210,-210,202.5,460,SBD,Single-ply
4,Ibrahim Al Hasni,1996,Oman,59,56.9,M,Sub-Juniors,-110,110,115,115,45,55,-60,55,110,120,135,135,305,SBD,Single-ply
DQ,Jabar Ghafari,1994,Afghanistan,59,58.95,M,Sub-Juniors,140,-180,-180,140,-110,-110,-110,,150,152.5,-180,152.5,,SBD,Single-ply
DQ,Ryuta Terakado,1993,Japan,59,58,M,Sub-Juniors,-165,-165,-165,,105,-115,-120,105,160,180,-192.5,180,,SBD,Single-ply
1,Viki Aryanto,,Indonesia,66,65.5,M,Sub-Juniors,270,280,-295,280,145,152.5,-160,152.5,270,285,287.5,287.5,720,SBD,Single-ply
2,Ken Ashihara,1995,Japan,66,64.75,M,Sub-Juniors,-230,-230,230,230,100,-125,-125,100,190,205,210,210,540,SBD,Single-ply
3,Nie Tavakolidarka,1993,Iran,66,59.2,M,Sub-Juniors,210,225,-230,225,90,-115,-115,90,200,-205,-222.5,200,515,SBD,Single-ply
4,Neamatullah Ghafori,1994,Afghanistan,66,65.6,M,Sub-Juniors,150,-180,180,180,110,-120,-120,110,170,200,-227.5,200,490,SBD,Single-ply
5,Takuma Kono,1994,Japan,66,65.5,M,Sub-Juniors,170,185,195,195,110,120,127.5,127.5,145,152.5,162.5,162.5,485,SBD,Single-ply
6,Ramanan Ningthoujam,1996,India,66,62.2,M,Sub-Juniors,80,100,-120,100,50,60,-70,60,90,120,-140,120,280,SBD,Single-ply
1,Mohammed Ibrahim,1994,Iraq,74,73.8,M,Sub-Juniors,240,-250,250,250,140,150,-160,150,220,-235,-235,220,620,SBD,Single-ply
2,Konstan Pojidaev,1993,Uzbekistan,74,71.3,M,Sub-Juniors,230,240,245,245,-120,130,137.5,137.5,220,-230,230,230,612.5,SBD,Single-ply
3,Masaya Moribe,1994,Japan,74,69.6,M,Sub-Juniors,200,215,-230,215,120,130,-137.5,130,185,195,210,210,555,SBD,Single-ply
4,Ahmad Sediqigul,1994,Afghanistan,74,73.6,M,Sub-Juniors,-170,170,-200,170,110,-125,125,125,200,230,-237.5,230,525,SBD,Single-ply
5,John Castelar,1994,Philippines,74,71.5,M,Sub-Juniors,155,-177.5,-177.5,155,117.5,122.5,125,125,165,-185,-185,165,445,SBD,Single-ply
6,Mazin Al Khusaibi,1993,Oman,74,71.2,M,Sub-Juniors,-145,150,-155,150,90,100,-105,100,145,170,-190,170,420,SBD,Single-ply
1,Si Jhangyou,1994,Taiwan,83,81.6,M,Sub-Juniors,260,270,277.5,277.5,130,140,147.5,147.5,265,275,287.5,287.5,712.5,SBD,Single-ply
2,Nasem Arab,1994,Afghanistan,83,74.75,M,Sub-Juniors,150,175,-190,175,110,120,135,135,170,-190,-190,170,480,SBD,Single-ply
3,Gunasekarau.L.D.L,1993,Sri Lanka,83,79.15,M,Sub-Juniors,90,110,-120,110,70,80,-90,80,140,160,170,170,360,SBD,Single-ply
1,R Mohammd Ali,1993,Iran,93,83.95,M,Sub-Juniors,240,255,260,260,150,160,-170,160,220,230,-240,230,650,SBD,Single-ply
2,Clark Cruz,1994,Philippines,93,83.05,M,Sub-Juniors,230,245,255,255,90,-125,127.5,127.5,230,235,-240,235,617.5,SBD,Single-ply
3,Mohammad Sultani,1995,Afghanistan,93,91.2,M,Sub-Juniors,160,180,-210,180,-120,130,-140,130,170,200,220,220,530,SBD,Single-ply
4,Rupesh Su Rokade,1993,India,93,91.6,M,Sub-Juniors,200,210,215,215,90,100,105,105,-190,190,210,210,530,SBD,Single-ply
DQ,Kaushalyaw.M.A.P,1994,Sri Lanka,93,85.5,M,Sub-Juniors,110,120,-125,120,-65,65,70,70,-130,-130,-140,,,SBD,Single-ply
1,Sen Yang,1994,Taiwan,105,102.75,M,Sub-Juniors,290,305,-312.5,305,190,205,215,215,260,275,-280,275,795,SBD,Single-ply
2,Abdul-Tawab Durani,1995,Afghanistan,105,101.35,M,Sub-Juniors,-230,-230,230,230,-190,190,200,200,240,-270,-280,240,670,SBD,Single-ply
3,Miras Akpalenov,1995,Kazakhstan,105,104.3,M,Sub-Juniors,260,280,-290,280,120,130,-135,130,200,210,220,220,630,SBD,Single-ply
DQ,Ali Rahmati,1996,Iran,105,103.7,M,Sub-Juniors,-170,170,-190,170,-100,-100,-100,,-180,-180,-180,,,SBD,Single-ply
1,Hosse Fathizahed,1994,Iran,120,112.3,M,Sub-Juniors,260,-282.5,-285,260,180,195,-215,195,262.5,282.5,290,290,745,SBD,Single-ply
2,Yosuke Horiguchi,1993,Japan,120,105.95,M,Sub-Juniors,267.5,285,-300,285,205,-212.5,215,215,215,-235,242.5,242.5,742.5,SBD,Single-ply
DQ,A.M Manchenayeke,1993,Sri Lanka,120,119.05,M,Sub-Juniors,-90,-90,-90,,50,65,70,70,170,-190,,170,,SBD,Single-ply
1,Raymond Debuque,1993,Philippines,120+,123.45,M,Sub-Juniors,300,320,-330,320,170,-180,-180,170,230,240,-250,240,730,SBD,Single-ply
1,Mohana Iedani,1989,Iraq,53,52.3,M,Juniors,-150,-150,150,150,60,80,-90,80,150,170,180,180,410,SBD,Single-ply
2,Vyacheslav Kim,1991,Uzbekistan,53,48.9,M,Juniors,40,,,40,-30,30,,30,50,,,50,120,SBD,Single-ply
1,Awang Latiful Habir,1988,Indonesia,59,58.6,M,Juniors,230,-245,-245,230,150,-160,160,160,220,240,260,260,650,SBD,Single-ply
2,Yahya Al-Kiyumi,1991,Oman,59,58.95,M,Juniors,195,-205,-205,195,120,125,127.5,127.5,215,230,-235,230,552.5,SBD,Single-ply
3,Ahme Al Masslaw,1990,Iraq,59,58.65,M,Juniors,170,180,-190,180,110,112.5,125,125,175,190,-200,190,495,SBD,Single-ply
DQ,Valiy Veedpramod,1988,India,59,58.8,M,Juniors,-210,-210,-210,,-105,,,,-210,,,,,SBD,Single-ply
DQ,Motohito Kubo,1989,Japan,59,58.6,M,Juniors,-190,-190,-190,,110,115,125,125,225,232.5,-242.5,232.5,,SBD,Single-ply
1,Kumarmanish,1989,India,66,64.7,M,Juniors,-195,195,210,210,95,105,-112.5,105,200,220,-230,220,535,SBD,Single-ply
2,Omar Al Zakwani,1992,Oman,66,64.5,M,Juniors,180,-190,-190,180,110,115,120,120,205,215,225,225,525,SBD,Single-ply
DQ,Jyunichi Okumura,1989,Japan,66,65.7,M,Juniors,242.5,-250,255,255,-135,-135,-135,,215,222.5,-230,222.5,,SBD,Single-ply
DQ,Yoshito Nishimura,1990,Japan,66,65.8,M,Juniors,255,262.5,270,270,-175,-180,-180,,225,237.5,247.5,247.5,,SBD,Single-ply
DQ,Tamimi Turki Al,1990,Oman,66,65.55,M,Juniors,-245,-245,-245,,85,95,-100,95,210,-227.5,-227.5,210,,SBD,Single-ply
1,Doni Meiyanto,1989,Indonesia,74,69.85,M,Juniors,290,300,305,305,150,160,-165,160,290,300,-310,300,765,SBD,Single-ply
2,Toru Ashihara,1990,Japan,74,73.45,M,Juniors,-285,-285,285,285,187.5,195,-200,195,250,260,-282.5,260,740,SBD,Single-ply
3,Amit Kumar,1989,India,74,73.25,M,Juniors,240,-250,250,250,130,140,-145,140,245,-260,-262.5,245,635,SBD,Single-ply
4,Thani Mohamma Aulad,1990,Oman,74,73.3,M,Juniors,205,220,235,235,110,120,130,130,205,230,247.5,247.5,612.5,SBD,Single-ply
5,Akbar Rejvani,1989,Iran,74,69.5,M,Juniors,230,-245,-245,230,135,-155,155,155,200,215,-225,215,600,SBD,Single-ply
6,Ahmet Gurbanov,1992,Turkmenistan,74,73.95,M,Juniors,220,-240,-255,220,142.5,150,-157.5,150,210,-220,,210,580,SBD,Single-ply
1,Saee Sharifisedeh,1989,Iran,83,79.9,M,Juniors,285,297.5,310,310,185,195,205,205,260,275,-290,275,790,SBD,Single-ply
2,Dari Mandowenan,1989,Indonesia,83,82.1,M,Juniors,-270,275,290,290,162.5,172.5,182.5,182.5,240,260,-277.5,260,732.5,SBD,Single-ply
3,Sadegh Salehi,1989,Iran,83,80.6,M,Juniors,250,265,277.5,277.5,155,162.5,-170,162.5,250,265,277.5,277.5,717.5,SBD,Single-ply
4,Chalak Ali,1992,Iraq,83,77.3,M,Juniors,260,-275,275,275,170,-180,-180,170,230,240,250,250,695,SBD,Single-ply
5,Tomohide Mori,1989,Japan,83,81.45,M,Juniors,265,-287.5,-307.5,265,180,-187.5,190,190,205,222.5,-252.5,222.5,677.5,SBD,Single-ply
6,Galsaik Myagmarsuren,1988,Mongolia,83,80.95,M,Juniors,-250,250,-265,250,140,150,-160,150,245,257.5,-277.5,257.5,657.5,SBD,Single-ply
7,Daishin Seguchi,1991,Japan,83,77.5,M,Juniors,245,-255,-255,245,145,152.5,-160,152.5,210,220,-225,220,617.5,SBD,Single-ply
8,Thanisalim Aulad,1992,Oman,83,81.1,M,Juniors,205,225,-237.5,225,105,120,125,125,250,260,-280,260,610,SBD,Single-ply
9,Daniyor Khakimov,1989,Uzbekistan,83,82.2,M,Juniors,180,200,220,220,85,97.5,102.5,102.5,210,230,-265,230,552.5,SBD,Single-ply
1,Pouria Payoun,1991,Iran,93,91.85,M,Juniors,310,-330,-330,310,195,205,-215,205,275,287.5,295,295,810,SBD,Single-ply
2,Monish Khan,1990,India,93,89.25,M,Juniors,-315,-315,315,315,155,165,170,170,260,270,282.5,282.5,767.5,SBD,Single-ply
3,Ha Amiriabolverdi,1992,Iran,93,92.95,M,Juniors,-275,275,290,290,200,210,217.5,217.5,230,250,260,260,767.5,SBD,Single-ply
4,Kodimusa,1988,Indonesia,93,92.65,M,Juniors,-280,-285,285,285,165,180,-187.5,180,262.5,282.5,-302.5,282.5,747.5,SBD,Single-ply
5,Wei-Wen Hsiao,1989,Taiwan,93,89.2,M,Juniors,280,290,295,295,-180,180,190,190,240,-260,-260,240,725,SBD,Single-ply
6,Hikari Nabekura,1989,Japan,93,92.7,M,Juniors,-225,225,245,245,175,185,-197.5,185,220,240,250,250,680,SBD,Single-ply
7,K.W.H.M.R.U.W.W.Am,1992,Sri Lanka,93,86.65,M,Juniors,-140,140,160,160,-70,70,85,85,160,180,-200,180,425,SBD,Single-ply
1,Amma Al Khammasi,1988,Iraq,105,104.65,M,Juniors,310,320,330,330,-180,180,-190,180,280,300,-310,300,810,SBD,Single-ply
2,Nasiri Afshin,1989,Iran,105,104.95,M,Juniors,280,300,325,325,-190,190,197.5,197.5,220,260,-275,260,782.5,SBD,Single-ply
3,Toshihiro Hanada,1991,Japan,105,103.35,M,Juniors,280,295,-310,295,-205,205,-217.5,205,250,270,-277.5,270,770,SBD,Single-ply
4,Naoto Saito,1989,Japan,105,100.85,M,Juniors,260,270,-285,270,157.5,162.5,-165,162.5,210,225,-240,225,657.5,SBD,Single-ply
DQ,Sandeep Kumar,1989,India,105,100.5,M,Juniors,-230,-240,-240,,130,-135,,130,200,,,200,,SBD,Single-ply
1,Aqeel Gharbawee,1992,Iraq,120,109,M,Juniors,290,-320,-320,290,170,180,-190,180,250,265,275,275,745,SBD,Single-ply
2,Mars Akpalenov,1991,Kazakhstan,120,112.35,M,Juniors,270,290,-300,290,155,160,165,165,240,250,-260,250,705,SBD,Single-ply
3,Mohsen Majidifar,1989,Iran,120,105.45,M,Juniors,250,-270,-280,250,180,195,-205,195,-220,230,240,240,685,SBD,Single-ply
4,Ashok Makaranda,1990,India,120,107.9,M,Juniors,240,255,265,265,-120,120,130,130,240,-250,-252.5,240,635,SBD,Single-ply
5,Raut Yuvraj,1989,India,120,116.55,M,Juniors,-200,215,220,220,-110,-110,110,110,180,-200,,180,510,SBD,Single-ply
6,Haitham Al Hasni,1992,Oman,120,117,M,Juniors,-200,-200,200,200,80,90,-95,90,160,180,-200,180,470,SBD,Single-ply
1,Hamid Abbasshahri,1989,Iran,120+,134.55,M,Juniors,300,,,300,140,155,-210,155,-300,300,,300,755,SBD,Single-ply
2,Abhishek Ghosh,1988,India,120+,125.35,M,Juniors,250,265,-275,265,160,170,-175,170,200,215,222.5,222.5,657.5,SBD,Single-ply
3,Ansar Akabar,1988,India,120+,135.05,M,Juniors,250,-270,-270,250,155,165,-170,165,220,237.5,-245,237.5,652.5,SBD,Single-ply
4,R.A.I.S Ranasinghe,1991,Sri Lanka,120+,127,M,Juniors,-120,120,130,130,-60,60,65,65,135,150,160,160,355,SBD,Single-ply
